{
  "type": "service_account",
  "project_id": "savvy-mantis-270213",
  "private_key_id": "e3fae5144031bf7b7930d4995c794107869da604",
  "private_key": "-----BEGIN PRIVATE KEY-----\nMIIEvgIBADANBgkqhkiG9w0BAQEFAASCBKgwggSkAgEAAoIBAQChGG+Np8tBG229\n1WrqLmYcLIbf3HMi8c1tluoVmBLlRq2N1/kSb1NLsh+RRIibPE9PQrDwDwIFUsCS\nkPlwNw7Rz3Dmpi1/tbquzne+i9O3EX4Anzga2V5s3ZbX3gQSfodu2QxIsSEg6rY5\nEl0bsHI1vySR37ajUEW2kaFR7kkZ1kIr5xBMtLQUYov619WrYY+ZH/S7bkOOwaHy\nGy/GAFOa7/NNTF0SPQGRlgQRwVd5+DAlOJC7P/gcf5APB17FkHctq9TOfWJD8EH0\ng6hPmYTiBEVMY054BuUT63OR6JgyVvzxqGec+cgKuLjhjF7z/KWMKT3o2xb07EGi\nT35fR4/PAgMBAAECggEADIYF9L5kzotvf8YDGUXWef3mKv9hfgfL6hHvjGfgSYMH\nQ/3UZvVQ8D4JNosG5FaPGIDSmN75z73MAGOVLf7saoLUv+w5oPIuRfUBbxvsr2XZ\n5KTRa5jsE8zdiKuW/R8UBUSKBW6rviTbr1p48t7yigYcNYZC6wr3AxyVgh/i/pyU\nvtg3Se3N11+X+GpXBgGI4Wghh7XWUBZMGqEAyd3Db0/3VULrV7drjudOjPOjhQae\nOZGVY2UcLCamue+qTzbV3O3CkdGFAdLFb+byCHcHH0bP3X3EBaFz0AI3lpwf9nly\np/qWnqOyRbqhV8/Uz9PjZVo1mDEzrwX2ERJ4vTBBMQKBgQDPpGxDox4Wn0CMnqBZ\njdL+cRWz6HwyRUQwtVy+8ofy3wOqp+0HTfDqa44uezaGgTAbrTM/Cd/UQeVG4KsB\nksQSIdYaebRVGOTZerZIZhwctpTmyZZlDhDvDdFGjQDiClEe9/FvxVObL8HpWm5F\n6G+4Oo+nnVlv36D/rEr0h3HwvwKBgQDGnOdRX8vFa4waEwzHKKAETOD+yEZWxAUm\nWzJSolnnmf6Xa/xtTx3OufTElU07T69nivcThY1ImLIkgTk4f8LaLw1EgabEQmDw\nxThyI7TRC4GinSX9mgX3sTvNjv+M0r3U2/s5RO3F8ePWu5d/J98R0ch4XpO5ApHX\nfo244gsU8QKBgQCp2oydf4+bXcZFwXTWDQfuD797HdCKptKzLYiiwm6nI/sx3JAu\ni3lpqXXzW+Msf/1EhpgHFyK71POi2SHJ9a7iTj+ABNKZUfXSWWlHLBAPBOQlLf4S\nyEDd7GWm2q1AOsRFGvmrPrW3mod7Rfgyw4KwJ2df630/4KUowF3ITgvMrQKBgDvH\n0mBN4zmi62KVxUzUz4U71qUZhwJqsdofrP/uWf05/sV4/Vuxaplko2XgQoTNsVAL\nJd88XZAyVbxjIOP+oJmne+jY1WdRS3htBFZmpPAe9IALqPmyOIWbVRLELesnK3g8\nVluggakI67kgcbMWPzBP4nVIklInkdo4/1NcxlUhAoGBAIJD9j7IH8NoRoxY+v5v\nLLl3ubR6k9Y4MiId+qllfr6aKpXRBhSmeUu8GXkHWK1iXy2Iq1D0tOh6QNLc6bT7\ntrWjtjs2Znid157wyYVmaoqXz1bIkKieREIgGOrgsVxFiN6h88lyFc0qdSGbinuq\n+9zoOQ50FRKQx5MYxCr80iIH\n-----END PRIVATE KEY-----\n",
  "client_email": "savvy-mantis-270213@savvy-mantis-270213.iam.gserviceaccount.com",
  "client_id": "103673043709797093054",
  "auth_uri": "https://accounts.google.com/o/oauth2/auth",
  "token_uri": "https://oauth2.googleapis.com/token",
  "auth_provider_x509_cert_url": "https://www.googleapis.com/oauth2/v1/certs",
  "client_x509_cert_url": "https://www.googleapis.com/robot/v1/metadata/x509/savvy-mantis-270213%40savvy-mantis-270213.iam.gserviceaccount.com"
}
